<?xml version="1.0" encoding="UTF-8" standalone="no"?>
<!-- Created with Inkscape (http://www.inkscape.org/) -->

<svg
   xmlns:dc="http://purl.org/dc/elements/1.1/"
   xmlns:cc="http://creativecommons.org/ns#"
   xmlns:rdf="http://www.w3.org/1999/02/22-rdf-syntax-ns#"
   xmlns:svg="http://www.w3.org/2000/svg"
   xmlns="http://www.w3.org/2000/svg"
   xmlns:sodipodi="http://sodipodi.sourceforge.net/DTD/sodipodi-0.dtd"
   xmlns:inkscape="http://www.inkscape.org/namespaces/inkscape"
   width="286.18521mm"
   height="61.963387mm"
   viewBox="0 0 286.18521 61.963387"
   version="1.1"
   id="svg8"
   inkscape:version="0.92.3 (2405546, 2018-03-11)"
   sodipodi:docname="oneSetNoBg.svg">
  <defs
     id="defs2">
    <marker
       inkscape:stockid="Arrow1Lend"
       orient="auto"
       refY="0"
       refX="0"
       id="Arrow1Lend"
       style="overflow:visible"
       inkscape:isstock="true">
      <path
         id="path1058"
         d="M 0,0 5,-5 -12.5,0 5,5 Z"
         style="fill:#000000;fill-opacity:1;fill-rule:evenodd;stroke:#000000;stroke-width:1.00000003pt;stroke-opacity:1"
         transform="matrix(-0.8,0,0,-0.8,-10,0)"
         inkscape:connector-curvature="0" />
    </marker>
  </defs>
  <sodipodi:namedview
     id="base"
     pagecolor="#ffffff"
     bordercolor="#666666"
     borderopacity="1.0"
     inkscape:pageopacity="0.0"
     inkscape:pageshadow="2"
     inkscape:zoom="2.86"
     inkscape:cx="520.68667"
     inkscape:cy="107.69171"
     inkscape:document-units="mm"
     inkscape:current-layer="layer1"
     showgrid="false"
     inkscape:window-width="3840"
     inkscape:window-height="1536"
     inkscape:window-x="0"
     inkscape:window-y="27"
     inkscape:window-maximized="1"
     fit-margin-top="0"
     fit-margin-left="0"
     fit-margin-right="0"
     fit-margin-bottom="0" />
  <metadata
     id="metadata5">
    <rdf:RDF>
      <cc:Work
         rdf:about="">
        <dc:format>image/svg+xml</dc:format>
        <dc:type
           rdf:resource="http://purl.org/dc/dcmitype/StillImage" />
        <dc:title></dc:title>
      </cc:Work>
    </rdf:RDF>
  </metadata>
  <g
     inkscape:label="Layer 1"
     inkscape:groupmode="layer"
     id="layer1"
     transform="translate(32.181659,-151.236)">
    <g
       id="g991"
       transform="translate(0,95.250054)">
      <path
         sodipodi:nodetypes="cc"
         inkscape:connector-curvature="0"
         id="path815"
         d="M 17,115.72636 H 200"
         style="fill:none;fill-rule:evenodd;stroke:#000000;stroke-width:0.26458332px;stroke-linecap:butt;stroke-linejoin:miter;stroke-opacity:1" />
      <rect
         y="114.61622"
         x="19.519958"
         height="2.2202797"
         width="6.1982808"
         id="rect817"
         style="opacity:0.894;fill:#ff0000;fill-opacity:1;stroke:none;stroke-width:1.78020084;stroke-miterlimit:4;stroke-dasharray:none;stroke-dashoffset:0;stroke-opacity:1" />
      <rect
         style="opacity:0.894;fill:#ff0000;fill-opacity:1;stroke:none;stroke-width:1.99329352;stroke-miterlimit:4;stroke-dasharray:none;stroke-dashoffset:0;stroke-opacity:1"
         id="rect819"
         width="7.7709789"
         height="2.2202797"
         x="87.882431"
         y="114.61622" />
      <rect
         y="114.61622"
         x="113.99293"
         height="2.2202797"
         width="3.8854895"
         id="rect821"
         style="opacity:0.894;fill:#ff0000;fill-opacity:1;stroke:none;stroke-width:1.40947139;stroke-miterlimit:4;stroke-dasharray:none;stroke-dashoffset:0;stroke-opacity:1" />
      <rect
         y="114.61622"
         x="161.61743"
         height="2.2202797"
         width="11.193911"
         id="rect825"
         style="opacity:0.894;fill:#ff0000;fill-opacity:1;stroke:none;stroke-width:2.39234781;stroke-miterlimit:4;stroke-dasharray:none;stroke-dashoffset:0;stroke-opacity:1" />
      <text
         id="text843"
         y="116.60227"
         x="-5.716608"
         style="font-style:normal;font-variant:normal;font-weight:normal;font-stretch:normal;font-size:3.17499995px;line-height:125%;font-family:sans-serif;-inkscape-font-specification:sans-serif;letter-spacing:0px;word-spacing:0px;fill:#000000;fill-opacity:1;stroke:none;stroke-width:0.26458332px;stroke-linecap:butt;stroke-linejoin:miter;stroke-opacity:1"
         xml:space="preserve"><tspan
           style="stroke-width:0.26458332px"
           y="116.60227"
           x="-5.716608"
           id="tspan841"
           sodipodi:role="line">user input set</tspan></text>
    </g>
    <path
       sodipodi:nodetypes="cc"
       inkscape:connector-curvature="0"
       id="path827"
       d="M 17,198.33389 H 200"
       style="fill:none;fill-rule:evenodd;stroke:#000000;stroke-width:0.26458332px;stroke-linecap:butt;stroke-linejoin:miter;stroke-opacity:1" />
    <text
       xml:space="preserve"
       style="font-style:normal;font-variant:normal;font-weight:normal;font-stretch:normal;font-size:3.17499995px;line-height:125%;font-family:sans-serif;-inkscape-font-specification:sans-serif;text-align:center;letter-spacing:0px;word-spacing:0px;text-anchor:middle;fill:#000000;fill-opacity:1;stroke:none;stroke-width:0.26458332px;stroke-linecap:butt;stroke-linejoin:miter;stroke-opacity:1"
       x="-8.0622015"
       y="198.94518"
       id="text847"><tspan
         id="tspan1027"
         sodipodi:role="line"
         x="-8.0622015"
         y="198.94518"
         style="text-align:center;text-anchor:middle;stroke-width:0.26458332px">merge of all UniBind TFBS sets</tspan></text>
    <text
       xml:space="preserve"
       style="font-style:normal;font-variant:normal;font-weight:normal;font-stretch:normal;font-size:3.17499995px;line-height:125%;font-family:sans-serif;-inkscape-font-specification:sans-serif;letter-spacing:0px;word-spacing:0px;fill:#000000;fill-opacity:1;stroke:none;stroke-width:0.26458332px;stroke-linecap:butt;stroke-linejoin:miter;stroke-opacity:1"
       x="168.81468"
       y="-108.30312"
       id="text859"
       transform="rotate(90)"><tspan
         sodipodi:role="line"
         id="tspan857"
         x="168.81468"
         y="-108.30312"
         style="stroke-width:0.26458332px">.......</tspan></text>
    <path
       style="fill:none;fill-rule:evenodd;stroke:#000000;stroke-width:0.26458332px;stroke-linecap:butt;stroke-linejoin:miter;stroke-opacity:1"
       d="M 17,154.55105 H 200"
       id="path849"
       inkscape:connector-curvature="0"
       sodipodi:nodetypes="cc" />
    <rect
       y="153.4409"
       x="19.519958"
       height="2.2202797"
       width="3.9780011"
       id="rect861"
       style="opacity:0.894;fill:#008000;fill-opacity:1;stroke:none;stroke-width:1.42615199;stroke-miterlimit:4;stroke-dasharray:none;stroke-dashoffset:0;stroke-opacity:1" />
    <rect
       style="opacity:0.894;fill:#008000;fill-opacity:1;stroke:none;stroke-width:1.42615199;stroke-miterlimit:4;stroke-dasharray:none;stroke-dashoffset:0;stroke-opacity:1"
       id="rect863"
       width="3.9780011"
       height="2.2202797"
       x="43.861649"
       y="153.4409" />
    <rect
       y="153.4409"
       x="50.211655"
       height="2.2202797"
       width="3.9780011"
       id="rect865"
       style="opacity:0.894;fill:#008000;fill-opacity:1;stroke:none;stroke-width:1.42615199;stroke-miterlimit:4;stroke-dasharray:none;stroke-dashoffset:0;stroke-opacity:1" />
    <rect
       style="opacity:0.894;fill:#008000;fill-opacity:1;stroke:none;stroke-width:1.42615199;stroke-miterlimit:4;stroke-dasharray:none;stroke-dashoffset:0;stroke-opacity:1"
       id="rect867"
       width="3.9780011"
       height="2.2202797"
       x="70.849174"
       y="153.4409" />
    <rect
       y="153.4409"
       x="90.957527"
       height="2.2202797"
       width="3.9780011"
       id="rect869"
       style="opacity:0.894;fill:#008000;fill-opacity:1;stroke:none;stroke-width:1.42615199;stroke-miterlimit:4;stroke-dasharray:none;stroke-dashoffset:0;stroke-opacity:1" />
    <rect
       style="opacity:0.894;fill:#008000;fill-opacity:1;stroke:none;stroke-width:1.42615199;stroke-miterlimit:4;stroke-dasharray:none;stroke-dashoffset:0;stroke-opacity:1"
       id="rect871"
       width="3.9780011"
       height="2.2202797"
       x="115.29922"
       y="153.4409" />
    <rect
       y="153.4409"
       x="132.76164"
       height="2.2202797"
       width="3.9780011"
       id="rect873"
       style="opacity:0.894;fill:#008000;fill-opacity:1;stroke:none;stroke-width:1.42615199;stroke-miterlimit:4;stroke-dasharray:none;stroke-dashoffset:0;stroke-opacity:1" />
    <rect
       style="opacity:0.894;fill:#008000;fill-opacity:1;stroke:none;stroke-width:1.42615199;stroke-miterlimit:4;stroke-dasharray:none;stroke-dashoffset:0;stroke-opacity:1"
       id="rect875"
       width="3.9780011"
       height="2.2202797"
       x="178.79852"
       y="153.4409" />
    <rect
       y="153.4409"
       x="192.02751"
       height="2.2202797"
       width="3.9780011"
       id="rect877"
       style="opacity:0.894;fill:#008000;fill-opacity:1;stroke:none;stroke-width:1.42615199;stroke-miterlimit:4;stroke-dasharray:none;stroke-dashoffset:0;stroke-opacity:1" />
    <text
       xml:space="preserve"
       style="font-style:normal;font-variant:normal;font-weight:normal;font-stretch:normal;font-size:3.17499995px;line-height:125%;font-family:sans-serif;-inkscape-font-specification:sans-serif;letter-spacing:0px;word-spacing:0px;fill:#000000;fill-opacity:1;stroke:none;stroke-width:0.26458332px;stroke-linecap:butt;stroke-linejoin:miter;stroke-opacity:1"
       x="-13.641705"
       y="155.7347"
       id="text919"><tspan
         sodipodi:role="line"
         id="tspan917"
         x="-13.641705"
         y="155.7347"
         style="stroke-width:0.26458332px">UniBind TFBS set 1</tspan></text>
    <path
       sodipodi:nodetypes="cc"
       inkscape:connector-curvature="0"
       id="path851"
       d="M 17,159.31347 H 200"
       style="fill:none;fill-rule:evenodd;stroke:#000000;stroke-width:0.26458332px;stroke-linecap:butt;stroke-linejoin:miter;stroke-opacity:1" />
    <rect
       style="opacity:0.894;fill:#aa4400;fill-opacity:1;stroke:none;stroke-width:1.42615199;stroke-miterlimit:4;stroke-dasharray:none;stroke-dashoffset:0;stroke-opacity:1"
       id="rect879"
       width="3.9780011"
       height="2.2202797"
       x="192.02751"
       y="158.20334" />
    <rect
       y="158.20334"
       x="169.27365"
       height="2.2202797"
       width="3.9780011"
       id="rect881"
       style="opacity:0.894;fill:#aa4400;fill-opacity:1;stroke:none;stroke-width:1.42615199;stroke-miterlimit:4;stroke-dasharray:none;stroke-dashoffset:0;stroke-opacity:1" />
    <rect
       style="opacity:0.894;fill:#aa4400;fill-opacity:1;stroke:none;stroke-width:1.42615199;stroke-miterlimit:4;stroke-dasharray:none;stroke-dashoffset:0;stroke-opacity:1"
       id="rect883"
       width="3.9780011"
       height="2.2202797"
       x="155.5155"
       y="158.20334" />
    <rect
       y="158.20334"
       x="135.40744"
       height="2.2202797"
       width="3.9780011"
       id="rect885"
       style="opacity:0.894;fill:#aa4400;fill-opacity:1;stroke:none;stroke-width:1.42615199;stroke-miterlimit:4;stroke-dasharray:none;stroke-dashoffset:0;stroke-opacity:1" />
    <rect
       style="opacity:0.894;fill:#aa4400;fill-opacity:1;stroke:none;stroke-width:1.42615199;stroke-miterlimit:4;stroke-dasharray:none;stroke-dashoffset:0;stroke-opacity:1"
       id="rect887"
       width="3.9780011"
       height="2.2202797"
       x="106.83257"
       y="158.20334" />
    <rect
       y="158.20334"
       x="62.911713"
       height="2.2202797"
       width="3.9780011"
       id="rect889"
       style="opacity:0.894;fill:#aa4400;fill-opacity:1;stroke:none;stroke-width:1.42615199;stroke-miterlimit:4;stroke-dasharray:none;stroke-dashoffset:0;stroke-opacity:1" />
    <text
       id="text923"
       y="160.49713"
       x="-13.6169"
       style="font-style:normal;font-variant:normal;font-weight:normal;font-stretch:normal;font-size:3.17499995px;line-height:125%;font-family:sans-serif;-inkscape-font-specification:sans-serif;letter-spacing:0px;word-spacing:0px;fill:#000000;fill-opacity:1;stroke:none;stroke-width:0.26458332px;stroke-linecap:butt;stroke-linejoin:miter;stroke-opacity:1"
       xml:space="preserve"><tspan
         style="stroke-width:0.26458332px"
         y="160.49713"
         x="-13.6169"
         id="tspan921"
         sodipodi:role="line">UniBind TFBS set 2</tspan></text>
    <path
       style="fill:none;fill-rule:evenodd;stroke:#000000;stroke-width:0.26458332px;stroke-linecap:butt;stroke-linejoin:miter;stroke-opacity:1"
       d="M 17,164.07592 H 200"
       id="path853"
       inkscape:connector-curvature="0"
       sodipodi:nodetypes="cc" />
    <rect
       style="opacity:0.894;fill:#008080;fill-opacity:1;stroke:none;stroke-width:1.42615199;stroke-miterlimit:4;stroke-dasharray:none;stroke-dashoffset:0;stroke-opacity:1"
       id="rect891"
       width="3.9780011"
       height="2.2202797"
       x="32.220016"
       y="162.96577" />
    <rect
       y="162.96577"
       x="46.50753"
       height="2.2202797"
       width="3.9780011"
       id="rect893"
       style="opacity:0.894;fill:#008080;fill-opacity:1;stroke:none;stroke-width:1.42615199;stroke-miterlimit:4;stroke-dasharray:none;stroke-dashoffset:0;stroke-opacity:1" />
    <rect
       style="opacity:0.894;fill:#008080;fill-opacity:1;stroke:none;stroke-width:1.42615199;stroke-miterlimit:4;stroke-dasharray:none;stroke-dashoffset:0;stroke-opacity:1"
       id="rect895"
       width="3.9780011"
       height="2.2202797"
       x="63.970047"
       y="162.96577" />
    <rect
       y="162.96577"
       x="81.961731"
       height="2.2202797"
       width="3.9780011"
       id="rect897"
       style="opacity:0.894;fill:#008080;fill-opacity:1;stroke:none;stroke-width:1.42615199;stroke-miterlimit:4;stroke-dasharray:none;stroke-dashoffset:0;stroke-opacity:1" />
    <rect
       style="opacity:0.894;fill:#008080;fill-opacity:1;stroke:none;stroke-width:1.42615199;stroke-miterlimit:4;stroke-dasharray:none;stroke-dashoffset:0;stroke-opacity:1"
       id="rect899"
       width="3.9780011"
       height="2.2202797"
       x="98.895081"
       y="162.96577" />
    <rect
       y="162.96577"
       x="123.76591"
       height="2.2202797"
       width="3.9780011"
       id="rect901"
       style="opacity:0.894;fill:#008080;fill-opacity:1;stroke:none;stroke-width:1.42615199;stroke-miterlimit:4;stroke-dasharray:none;stroke-dashoffset:0;stroke-opacity:1" />
    <rect
       style="opacity:0.894;fill:#008080;fill-opacity:1;stroke:none;stroke-width:1.42615199;stroke-miterlimit:4;stroke-dasharray:none;stroke-dashoffset:0;stroke-opacity:1"
       id="rect903"
       width="3.9780011"
       height="2.2202797"
       x="144.40318"
       y="162.96577" />
    <rect
       y="162.96577"
       x="171.39032"
       height="2.2202797"
       width="3.9780011"
       id="rect905"
       style="opacity:0.894;fill:#008080;fill-opacity:1;stroke:none;stroke-width:1.42615199;stroke-miterlimit:4;stroke-dasharray:none;stroke-dashoffset:0;stroke-opacity:1" />
    <text
       xml:space="preserve"
       style="font-style:normal;font-variant:normal;font-weight:normal;font-stretch:normal;font-size:3.17499995px;line-height:125%;font-family:sans-serif;-inkscape-font-specification:sans-serif;letter-spacing:0px;word-spacing:0px;fill:#000000;fill-opacity:1;stroke:none;stroke-width:0.26458332px;stroke-linecap:butt;stroke-linejoin:miter;stroke-opacity:1"
       x="-13.680462"
       y="165.25957"
       id="text927"><tspan
         sodipodi:role="line"
         id="tspan925"
         x="-13.680462"
         y="165.25957"
         style="stroke-width:0.26458332px">UniBind TFBS set 3</tspan></text>
    <path
       sodipodi:nodetypes="cc"
       inkscape:connector-curvature="0"
       id="path855"
       d="M 17,179.9507 H 200"
       style="fill:none;fill-rule:evenodd;stroke:#000000;stroke-width:0.26458332px;stroke-linecap:butt;stroke-linejoin:miter;stroke-opacity:1" />
    <rect
       style="opacity:0.894;fill:#ff00ff;fill-opacity:1;stroke:none;stroke-width:1.42615199;stroke-miterlimit:4;stroke-dasharray:none;stroke-dashoffset:0;stroke-opacity:1"
       id="rect907"
       width="3.9780011"
       height="2.2202797"
       x="171.39032"
       y="178.84056" />
    <rect
       y="178.84056"
       x="139.11159"
       height="2.2202797"
       width="3.9780011"
       id="rect909"
       style="opacity:0.894;fill:#ff00ff;fill-opacity:1;stroke:none;stroke-width:1.42615199;stroke-miterlimit:4;stroke-dasharray:none;stroke-dashoffset:0;stroke-opacity:1" />
    <rect
       style="opacity:0.894;fill:#ff00ff;fill-opacity:1;stroke:none;stroke-width:1.42615199;stroke-miterlimit:4;stroke-dasharray:none;stroke-dashoffset:0;stroke-opacity:1"
       id="rect911"
       width="3.9780011"
       height="2.2202797"
       x="96.778412"
       y="178.84056" />
    <rect
       y="178.84056"
       x="51.799202"
       height="2.2202797"
       width="3.9780011"
       id="rect913"
       style="opacity:0.894;fill:#ff00ff;fill-opacity:1;stroke:none;stroke-width:1.42615199;stroke-miterlimit:4;stroke-dasharray:none;stroke-dashoffset:0;stroke-opacity:1" />
    <rect
       style="opacity:0.894;fill:#ff00ff;fill-opacity:1;stroke:none;stroke-width:1.42615199;stroke-miterlimit:4;stroke-dasharray:none;stroke-dashoffset:0;stroke-opacity:1"
       id="rect915"
       width="3.9780011"
       height="2.2202797"
       x="23.224174"
       y="178.84056" />
    <text
       id="text931"
       y="181.13435"
       x="-13.711468"
       style="font-style:normal;font-variant:normal;font-weight:normal;font-stretch:normal;font-size:3.17499995px;line-height:125%;font-family:sans-serif;-inkscape-font-specification:sans-serif;letter-spacing:0px;word-spacing:0px;fill:#000000;fill-opacity:1;stroke:none;stroke-width:0.26458332px;stroke-linecap:butt;stroke-linejoin:miter;stroke-opacity:1"
       xml:space="preserve"><tspan
         style="stroke-width:0.26458332px"
         y="181.13435"
         x="-13.711468"
         id="tspan929"
         sodipodi:role="line">UniBind TFBS set <tspan
   style="font-style:italic"
   id="tspan933">n</tspan></tspan></text>
    <rect
       style="opacity:0.894;fill:#0000ff;fill-opacity:1;stroke:none;stroke-width:1.42615199;stroke-miterlimit:4;stroke-dasharray:none;stroke-dashoffset:0;stroke-opacity:1"
       id="rect1922"
       width="3.9780011"
       height="2.2202797"
       x="19.519958"
       y="197.22375" />
    <rect
       y="197.22375"
       x="43.861649"
       height="2.2202797"
       width="3.9780011"
       id="rect1924"
       style="opacity:0.894;fill:#0000ff;fill-opacity:1;stroke:none;stroke-width:1.42615199;stroke-miterlimit:4;stroke-dasharray:none;stroke-dashoffset:0;stroke-opacity:1" />
    <rect
       style="opacity:0.894;fill:#0000ff;fill-opacity:1;stroke:none;stroke-width:1.42615199;stroke-miterlimit:4;stroke-dasharray:none;stroke-dashoffset:0;stroke-opacity:1"
       id="rect1926"
       width="3.9780011"
       height="2.2202797"
       x="50.211655"
       y="197.22375" />
    <rect
       y="197.22375"
       x="70.849174"
       height="2.2202797"
       width="3.9780011"
       id="rect1928"
       style="opacity:0.894;fill:#0000ff;fill-opacity:1;stroke:none;stroke-width:1.42615199;stroke-miterlimit:4;stroke-dasharray:none;stroke-dashoffset:0;stroke-opacity:1" />
    <rect
       style="opacity:0.894;fill:#0000ff;fill-opacity:1;stroke:none;stroke-width:1.42615199;stroke-miterlimit:4;stroke-dasharray:none;stroke-dashoffset:0;stroke-opacity:1"
       id="rect1930"
       width="3.9780011"
       height="2.2202797"
       x="90.957527"
       y="197.22375" />
    <rect
       y="197.22375"
       x="115.29922"
       height="2.2202797"
       width="3.9780011"
       id="rect1932"
       style="opacity:0.894;fill:#0000ff;fill-opacity:1;stroke:none;stroke-width:1.42615199;stroke-miterlimit:4;stroke-dasharray:none;stroke-dashoffset:0;stroke-opacity:1" />
    <rect
       style="opacity:0.894;fill:#0000ff;fill-opacity:1;stroke:none;stroke-width:1.42615199;stroke-miterlimit:4;stroke-dasharray:none;stroke-dashoffset:0;stroke-opacity:1"
       id="rect1934"
       width="3.9780011"
       height="2.2202797"
       x="132.76164"
       y="197.22375" />
    <rect
       y="197.22375"
       x="178.79852"
       height="2.2202797"
       width="3.9780011"
       id="rect1936"
       style="opacity:0.894;fill:#0000ff;fill-opacity:1;stroke:none;stroke-width:1.42615199;stroke-miterlimit:4;stroke-dasharray:none;stroke-dashoffset:0;stroke-opacity:1" />
    <rect
       style="opacity:0.894;fill:#0000ff;fill-opacity:1;stroke:none;stroke-width:1.42615199;stroke-miterlimit:4;stroke-dasharray:none;stroke-dashoffset:0;stroke-opacity:1"
       id="rect1938"
       width="3.9780011"
       height="2.2202797"
       x="192.02751"
       y="197.22375" />
    <rect
       y="197.22375"
       x="192.02751"
       height="2.2202797"
       width="3.9780011"
       id="rect1940"
       style="opacity:0.894;fill:#0000ff;fill-opacity:1;stroke:none;stroke-width:1.42615199;stroke-miterlimit:4;stroke-dasharray:none;stroke-dashoffset:0;stroke-opacity:1" />
    <rect
       style="opacity:0.894;fill:#0000ff;fill-opacity:1;stroke:none;stroke-width:1.42615199;stroke-miterlimit:4;stroke-dasharray:none;stroke-dashoffset:0;stroke-opacity:1"
       id="rect1942"
       width="3.9780011"
       height="2.2202797"
       x="169.27365"
       y="197.22375" />
    <rect
       y="197.22375"
       x="155.5155"
       height="2.2202797"
       width="3.9780011"
       id="rect1944"
       style="opacity:0.894;fill:#0000ff;fill-opacity:1;stroke:none;stroke-width:1.42615199;stroke-miterlimit:4;stroke-dasharray:none;stroke-dashoffset:0;stroke-opacity:1" />
    <rect
       style="opacity:0.894;fill:#0000ff;fill-opacity:1;stroke:none;stroke-width:1.42615199;stroke-miterlimit:4;stroke-dasharray:none;stroke-dashoffset:0;stroke-opacity:1"
       id="rect1946"
       width="3.9780011"
       height="2.2202797"
       x="135.40744"
       y="197.22375" />
    <rect
       y="197.22375"
       x="106.83257"
       height="2.2202797"
       width="3.9780011"
       id="rect1948"
       style="opacity:0.894;fill:#0000ff;fill-opacity:1;stroke:none;stroke-width:1.42615199;stroke-miterlimit:4;stroke-dasharray:none;stroke-dashoffset:0;stroke-opacity:1" />
    <rect
       style="opacity:0.894;fill:#0000ff;fill-opacity:1;stroke:none;stroke-width:1.42615199;stroke-miterlimit:4;stroke-dasharray:none;stroke-dashoffset:0;stroke-opacity:1"
       id="rect1950"
       width="3.9780011"
       height="2.2202797"
       x="62.911713"
       y="197.22375" />
    <rect
       y="197.22375"
       x="32.220016"
       height="2.2202797"
       width="3.9780011"
       id="rect1952"
       style="opacity:0.894;fill:#0000ff;fill-opacity:1;stroke:none;stroke-width:1.42615199;stroke-miterlimit:4;stroke-dasharray:none;stroke-dashoffset:0;stroke-opacity:1" />
    <rect
       style="opacity:0.894;fill:#0000ff;fill-opacity:1;stroke:none;stroke-width:1.42615199;stroke-miterlimit:4;stroke-dasharray:none;stroke-dashoffset:0;stroke-opacity:1"
       id="rect1954"
       width="3.9780011"
       height="2.2202797"
       x="46.50753"
       y="197.22375" />
    <rect
       y="197.22375"
       x="63.970047"
       height="2.2202797"
       width="3.9780011"
       id="rect1956"
       style="opacity:0.894;fill:#0000ff;fill-opacity:1;stroke:none;stroke-width:1.42615199;stroke-miterlimit:4;stroke-dasharray:none;stroke-dashoffset:0;stroke-opacity:1" />
    <rect
       style="opacity:0.894;fill:#0000ff;fill-opacity:1;stroke:none;stroke-width:1.42615199;stroke-miterlimit:4;stroke-dasharray:none;stroke-dashoffset:0;stroke-opacity:1"
       id="rect1958"
       width="3.9780011"
       height="2.2202797"
       x="81.961731"
       y="197.22375" />
    <rect
       y="197.22375"
       x="98.895081"
       height="2.2202797"
       width="3.9780011"
       id="rect1960"
       style="opacity:0.894;fill:#0000ff;fill-opacity:1;stroke:none;stroke-width:1.42615199;stroke-miterlimit:4;stroke-dasharray:none;stroke-dashoffset:0;stroke-opacity:1" />
    <rect
       style="opacity:0.894;fill:#0000ff;fill-opacity:1;stroke:none;stroke-width:1.42615199;stroke-miterlimit:4;stroke-dasharray:none;stroke-dashoffset:0;stroke-opacity:1"
       id="rect1962"
       width="3.9780011"
       height="2.2202797"
       x="123.76591"
       y="197.22375" />
    <rect
       y="197.22375"
       x="144.40318"
       height="2.2202797"
       width="3.9780011"
       id="rect1964"
       style="opacity:0.894;fill:#0000ff;fill-opacity:1;stroke:none;stroke-width:1.42615199;stroke-miterlimit:4;stroke-dasharray:none;stroke-dashoffset:0;stroke-opacity:1" />
    <rect
       style="opacity:0.894;fill:#0000ff;fill-opacity:1;stroke:none;stroke-width:1.42615199;stroke-miterlimit:4;stroke-dasharray:none;stroke-dashoffset:0;stroke-opacity:1"
       id="rect1966"
       width="3.9780011"
       height="2.2202797"
       x="171.39032"
       y="197.22375" />
    <rect
       y="197.22375"
       x="171.39032"
       height="2.2202797"
       width="3.9780011"
       id="rect1968"
       style="opacity:0.894;fill:#0000ff;fill-opacity:1;stroke:none;stroke-width:1.42615199;stroke-miterlimit:4;stroke-dasharray:none;stroke-dashoffset:0;stroke-opacity:1" />
    <rect
       style="opacity:0.894;fill:#0000ff;fill-opacity:1;stroke:none;stroke-width:1.42615199;stroke-miterlimit:4;stroke-dasharray:none;stroke-dashoffset:0;stroke-opacity:1"
       id="rect1970"
       width="3.9780011"
       height="2.2202797"
       x="139.11159"
       y="197.22375" />
    <rect
       y="197.22375"
       x="96.778412"
       height="2.2202797"
       width="3.9780011"
       id="rect1972"
       style="opacity:0.894;fill:#0000ff;fill-opacity:1;stroke:none;stroke-width:1.42615199;stroke-miterlimit:4;stroke-dasharray:none;stroke-dashoffset:0;stroke-opacity:1" />
    <rect
       style="opacity:0.894;fill:#0000ff;fill-opacity:1;stroke:none;stroke-width:1.42615199;stroke-miterlimit:4;stroke-dasharray:none;stroke-dashoffset:0;stroke-opacity:1"
       id="rect1974"
       width="3.9780011"
       height="2.2202797"
       x="51.799202"
       y="197.22375" />
    <rect
       y="197.22375"
       x="23.224174"
       height="2.2202797"
       width="3.9780011"
       id="rect1976"
       style="opacity:0.894;fill:#0000ff;fill-opacity:1;stroke:none;stroke-width:1.42615199;stroke-miterlimit:4;stroke-dasharray:none;stroke-dashoffset:0;stroke-opacity:1" />
    <text
       xml:space="preserve"
       style="font-style:normal;font-variant:normal;font-weight:normal;font-stretch:normal;font-size:3.17499995px;line-height:125%;font-family:sans-serif;-inkscape-font-specification:sans-serif;letter-spacing:0px;word-spacing:0px;fill:#000000;fill-opacity:1;stroke:none;stroke-width:0.26458332px;stroke-linecap:butt;stroke-linejoin:miter;stroke-opacity:1"
       x="207.52026"
       y="212.3922"
       id="text2183"><tspan
         sodipodi:role="line"
         id="tspan2181"
         x="207.52026"
         y="212.3922"
         style="font-style:normal;font-variant:normal;font-weight:bold;font-stretch:normal;font-size:3.88055563px;font-family:sans-serif;-inkscape-font-specification:'sans-serif Bold';stroke-width:0.26458332px">LOLA input set</tspan></text>
    <text
       xml:space="preserve"
       style="font-style:normal;font-variant:normal;font-weight:bold;font-stretch:normal;font-size:3.88055563px;line-height:125%;font-family:sans-serif;-inkscape-font-specification:'sans-serif Bold';letter-spacing:0px;word-spacing:0px;fill:#000000;fill-opacity:1;stroke:none;stroke-width:0.26458332px;stroke-linecap:butt;stroke-linejoin:miter;stroke-opacity:1"
       x="201.96388"
       y="212.25146"
       id="text2187"><tspan
         sodipodi:role="line"
         id="tspan2185"
         x="201.96388"
         y="212.25146"
         style="font-style:normal;font-variant:normal;font-weight:bold;font-stretch:normal;font-size:3.88055563px;font-family:sans-serif;-inkscape-font-specification:'sans-serif Bold';stroke-width:0.26458332px">}</tspan></text>
    <text
       id="text2191"
       y="199.69244"
       x="207.52026"
       style="font-style:normal;font-variant:normal;font-weight:normal;font-stretch:normal;font-size:3.17499995px;line-height:125%;font-family:sans-serif;-inkscape-font-specification:sans-serif;letter-spacing:0px;word-spacing:0px;fill:#000000;fill-opacity:1;stroke:none;stroke-width:0.26458332px;stroke-linecap:butt;stroke-linejoin:miter;stroke-opacity:1"
       xml:space="preserve"><tspan
         style="font-style:normal;font-variant:normal;font-weight:bold;font-stretch:normal;font-size:3.88055563px;font-family:sans-serif;-inkscape-font-specification:'sans-serif Bold';stroke-width:0.26458332px"
         y="199.69244"
         x="207.52026"
         id="tspan2189"
         sodipodi:role="line">LOLA universe set</tspan></text>
    <text
       id="text2195"
       y="199.55171"
       x="201.96388"
       style="font-style:normal;font-variant:normal;font-weight:bold;font-stretch:normal;font-size:3.88055563px;line-height:125%;font-family:sans-serif;-inkscape-font-specification:'sans-serif Bold';letter-spacing:0px;word-spacing:0px;fill:#000000;fill-opacity:1;stroke:none;stroke-width:0.26458332px;stroke-linecap:butt;stroke-linejoin:miter;stroke-opacity:1"
       xml:space="preserve"><tspan
         style="font-style:normal;font-variant:normal;font-weight:bold;font-stretch:normal;font-size:3.88055563px;font-family:sans-serif;-inkscape-font-specification:'sans-serif Bold';stroke-width:0.26458332px"
         y="199.55171"
         x="201.96388"
         id="tspan2193"
         sodipodi:role="line">}</tspan></text>
    <text
       xml:space="preserve"
       style="font-style:normal;font-variant:normal;font-weight:normal;font-stretch:normal;font-size:3.17499995px;line-height:125%;font-family:sans-serif;-inkscape-font-specification:sans-serif;letter-spacing:0px;word-spacing:0px;fill:#000000;fill-opacity:1;stroke:none;stroke-width:0.26458332px;stroke-linecap:butt;stroke-linejoin:miter;stroke-opacity:1"
       x="207.52026"
       y="167.41342"
       id="text2199"><tspan
         sodipodi:role="line"
         id="tspan2197"
         x="207.52026"
         y="167.41342"
         style="font-style:normal;font-variant:normal;font-weight:bold;font-stretch:normal;font-size:3.88055563px;font-family:sans-serif;-inkscape-font-specification:'sans-serif Bold';stroke-width:0.26458332px">LOLA TFBS database</tspan></text>
    <text
       xml:space="preserve"
       style="font-style:normal;font-variant:normal;font-weight:bold;font-stretch:normal;font-size:11.77890301px;line-height:125%;font-family:sans-serif;-inkscape-font-specification:'sans-serif Bold';letter-spacing:0px;word-spacing:0px;fill:#000000;fill-opacity:1;stroke:none;stroke-width:0.80310696px;stroke-linecap:butt;stroke-linejoin:miter;stroke-opacity:1"
       x="613.03412"
       y="58.773853"
       id="text2203"
       transform="scale(0.32944966,3.0353651)"><tspan
         sodipodi:role="line"
         id="tspan2201"
         x="613.03412"
         y="58.773853"
         style="font-style:normal;font-variant:normal;font-weight:bold;font-stretch:normal;font-size:11.77890301px;font-family:sans-serif;-inkscape-font-specification:'sans-serif Bold';stroke-width:0.80310696px">}</tspan></text>
  </g>
</svg>
